De man knikte nei de sjauffeur, fage it swit fan syn foarholle en swaaide ek ferromme nei harren.
Sjen of 't helpt!
Ik spylje sels ek gitaar en sjong graach.
In gûnzjende stilte dy 't foar Dolf alhiel nij wie en dy 't him alhiel betsjoende.
Guon joegen him grut gelyk dat er Harm derút trape.
Yn de frjemde rêst dy 't oer in slachfjild sakket as de striid foarby is, sochten wy nei de sneuvelen.
Harren gniisrop wjerkeatste tsjin de hege muorren, de skelle lûden fan de froulju en bern mongen har mei it monotoane gedreun fan de fakuümsûgers dy 't mei lange slurven de rommen leech snuve.
Niis wie der ek wer in frou dy 't ûnder de plakken siet.
“Se binne mines! ” sei Frodo.
Dyn tiid sit der no op,
Fan de 32 saken komme 15 út Fryslân.
Foarbylden as frou Van der Leeuw binne der neffens Vereniging Gehandicaptenzorg in hiel soad.
Oft se it fernommen hat wit ik net, miskien sliepte se echt al.
Dy tsjinst is op de foarôfgeande snein yn de tsjinst fan Woords oankundige en, as de tsjerkeried dat winsklik oardielet, taret.
No en dan besochten se oer oare dingen te praten, oer har lange wei en in protte aventoeren; hja stelden Aragorn fragen oer it ryk fan Gondor en syn âlde skiednis, en de oerbliuwsels fan ’e grutte wurken dy ’t der noch yn dit frjemde grinsgebiet fan ’e Emyn Muil te sjen wiene; de stiennen keningen en de sitten Lhaw en Hen, en de grutte Trap njonken de Wetterfal fan Rauros.
Fan oaren ferwachtet er deselde hâlding.
Sâlthoarn
"T Giet goed!
No moatte jo dêr en dêr hinne, '- se neamde in herberch -' dêr komme dy studinten altyd '.
Yn in spannende finale kaam alles oan de hang.
Haad edukaasje
'Ja, se lizze oan stiennen.'
It trochbruts de ferfeling op sneontemiddei, foaral no 't it sukses mei de stientsjes útbleau en se gjin doel troffen.
Hja wist dat hja de bril net mear nedich hawwe soe.
En doe liet ik him it túnhúske sjen en draaide de kaai om.
Kom, skatsjes.
Hja krongen tegearre mei de rêch tsjin de muorre.
Doe socht er in wjirm en begûn te fiskjen.
'Sara moat in knappe geit west ha, doe 't se wat jonger wie, sa mei de kont omheech en har sturt yn 'e krol.
Aanst barre der ûngelokken.
It famke liet de holle hingje.
De Ried stelt de arbeidsbetingsten fêst, benammen de souder, de fergoedingen en it pensjoen fan de foarsitter en de leden fan de Rekkenkeamer.
Foaropwurd
Se rekke sa yn de ban fan syn ideeën oer leauwenssuvering en wrâldmijing dat se har, doe 't De Labadie yn 1669 út de tsjerke stapte, by him oansleat.
Dat do! "Seit er.
Register fan nammen wêze, earne... ’
Jou dat wy troch Him, dy ’t wurden fol wiisheid sprekt, op ’e nij berne wurde ta jo minsken, jo bern, hjoed en alle dagen fan ús libben.
No binne se oerdeis aktyf te sjen.
Farsk bestiet relatyf koart (sûnt febrewaris 2003), mar hat in groeiend publyksberik opboud.
De Kommisje bringt yn oparbeidzjen mei de lidsteaten alle jierren oan it Europeesk Parlemint en de Ried ferslach út oer it útfieren fan dit kêst nommen maatregels.
‘ Wat hawwe se dy te pakken hân, ’ hie de oare man sein, nei 't se him yn 'e sel werombrocht hiene.
Wurden streame troch my hinne.
Yn totaal binne fiif auto's yn beslach naam.
O, soe Peter noch wol op bêd lizze? '
Dy hearden al hast by it doarp.
Yn it lêste desennium fan de sechstjinde iuw waard yn dizze provinsje noch geregeld in wolf fongen dêr 't de jager steefêst tsien daalders of fyftjin caroligûne foar útbetelle krige.
Yn de sânde en achtste iuw kaam súd fan it Fryske kweldergebiet it Frankyske keninkryk op. Ut dizze tiid wurde Fryske keningen neamd (miskien is it trouwens better te sprekken fan kriichshearen), nammentlik Radbod en Aldgillis.
Dat wie er ek, hy wie tritich.
No, sa lei it net.
Kunstmenu is it kultuer-edukatyf programma foar alle basisskoallen yn de gemeente Ljouwert.
Noch even en ik siet yn 'e auto en soe him noait wer sjen.
Fansels rinne goed en kwea ek dêr trochinoar, lykas oeral; mar ik haw der hiele goede minsken moete en haw myn hert oan dizze stêd en syn bewenners ferlern.
Ien dy 't op it fjild dominant wêze moat, moat him dan ek sjen litte.
“Ik soe net witte wat him oars tsjinhâlde koe, útsein de Fijân sels, ” sei Strider.
Nier klaut him op 'e plasse.
Alyda Norbruis krige de earste priis yn de kategory sporters mei in beheining.
Ik naam syn plak yn om healwei trijen doe 't wy stimmen yn 'e gong hearden.
Dy binne der net.
De Nus besocht syn hannen los te meitsjen sa 't er dat al earder besocht hie.
Nei in koart skoft begûnen wy oan it earste berchpaad: In mûzepaadsje.
‘ O ja, ’ sei notaris en die de klûs iepen.
Mariska Petstra fan de meldkeamer Noard-Nederlân is bliid mei har nominaasje foar de titel Helpferliener fan it Jier, mar sjocht de nominaasje as wurdearring foar de hiele meldkeamer.
Amtner Fryske taalbelied
It wie noch in wûnder dat se deryn slaggen om oerein te bliuwen.
De 'westerske mentaliteit', sa 't se yn de provinsje noch altyd graach sizze, wreidet him blykber út nei de eigen kontreien.
Doe sei ik it.
‘ Do wiest sechtjin, doe... doe... doe mei dy heit fan my..., mei Sjoerd de Vries... ’
Ik sei: 'Poets no mar en sis neat.
Of net?
It kin dochs net wêze dat ik dat aanst foar it lêst lês.
Do mear foldwaning.
Mefrou hie miskien wolris wat fan him lêzen yn De âlde Húsfreon fan Jan Goeverneur?
Mar noch noait koe er leauwe, dat se echt dea wie.
Kening Lear wie in grutte produksje, de sechstjin toande kostúms binne noch gjin tsiende part fan de totale oanklaaiïng.
1933 -1947 Metske Faber
Minsken mei in lyts ynkommen of in útkearing wurde dêrtroch wol hiel beheind.
Hy hie my ferteld dat syn fakânsje foarby wie en frije dagen hie er net.
Earbiedweardich seach er derút, as in kening kroand troch in protte winters, mar dochs kloek as in pree kriichsman yn `e folheid fan syn krêft.
Ungelokkigerwize hie ik krekt op it momint dat mefrou ús de rêch toande, meilydsum en iroanysk mei de holle skodde, net mei opsetsin, mar hiel ûnwillekeurich, sa yntins hie ik de hiele wurdfloed folge.
Neffens Faroek soe ik ûnderweis neat nedich hawwe.
Foar safier 't ik my konsintrearje koe, lies ik boeken en folge ik yn de kranten mei belangstelling de earste stappen op de moanne.
'Se soene fuort dalik nei 't muoike Nelly my ophelle hie.
By de jildautomaat by de Jumbo oan de Markt yn Wolvegea hat sneintemoarn betiid in plofkreak west.
Wat langer ik wachtsje, hoe ûnmooglik it wurdt, want as ik nei har ta gean, sil se my freegje wêr 't ik al dy moannen bleaun bin.
Yn dy tiid woe ik neat fan har oannimme.
Dyn sinne ferljochtsje myn skriuwen.
De begeliedende teksten behannelje net allinnich de kaarten mar jouwe ek ynformaasje oer de skiednis fan Smellingerlân.
De Hollanner en De Pin.
Organisearre fjochtpartijen yn Ljouwert moatte oanpakt wurde.
Koe men by wjirmen, spinnen en oare ynsekten noch tinke oan in primityf relikt út de oertiid, dat yngripen yn de bistewrâld koe wolris in symptoom wêze fan in feroarjende wurdearring fan de twa-ienheid man-frou.
Wy namen hertroerend ôfskied fan inoar oan 'e ein fan it skoaljier en gûlden alle twa, want ik waard op it Joadske Lyceum oannommen, dêr 't Margot ek hinne gie.
Soms tink ik dat it in spin is dy 't midden yn syn web sit te wachtsjen.
De priis waard foar de earste kear útrikt oan de Sineeske dichter Duoduo yn 2002.
Se koene amper sjen wêr 't se rûnen, se koene gjin fiif meter foar har útsjen, en de bochten kamen altyd ûnferwachts.
Neisimmerske ljochtspegelingen libellen kruse myn paad
Der hinget om har ein in waas fan geheimsinnichheid, want wat de tadracht krekt west hat, falt net mei wissichheid fêst te stellen.
'Leafde wâlet rûn oer d' ierde... ', sa fielde sy it ek.
Djip trochstutsen.
Yn ôfskied sei it lytse mantsje: 'Ik stean net ûnder de tovermacht fan it fluitsje.
Hy naam my mei nei in smûk, skimerich kafee yn 'e binnenstêd mei gesellich klikkerjende biljertballen.
Littenseradiel hat earder al besocht om subsydzje te krijen by in monumintestichting.
Doe 't ik goed en wol by de hear Dam op in stoel siet, fertelde ik him wat ik fan doel wie, mei deselde wurden.
Dat is hjir, by jo.
It Sinneliet
Op in ribbekast ketse alle wurden ôf.
As se it fuorthelle ha? '
Ek de Europeeske Sintrale Bank wurdt rieplachte yn gefal fan ynstitúsjonele wizigingen op monetêr mêd.
Fjouwert de natuer triomf mei flagge en wimpel.
Xxx..
Myn literêre foarkar gie yn dizze perioade foaral út nei de bekeringsferhalen fan de Ingelske skriuwster Fanny Eden.
'Dêr ha 'k no al in hiel skoft rinnen oer,' sei de wolf.
De Hollanner:
Net allinnich mei wat we sels yn 'e hûs ha, mar ek troch mei oaren nije wizen te betinken om it bysûndere fan Fryslân noch better foar it fuotljocht te bringen.
Krekt 50% fan de ynstjoeringen waard oerdeis skreaun en dus ek 50% jûns / nachts.
Yn de kafees, ek eigendom fan de feanbazen, ferdronken de manlju harren lêste pear sinten.
26
“Elven! ” rôp Tabe lústerjend.
'Knoop flibe op 'e grûn.
Op it tsjerkhôf fan Aldtsjerk is moandei in ynskripsje ûntbleate op de grêfstien fan Pieter Edzo Rauwerda.
Kêst 76
Dat it in opstiging is.
Mar yn wêzen miste ik har net, omdat sy nea wat foar my betsjutten hie.
En hân foar de grap
Yn it gemeentehûs fan Bûtenpost soe tongersdeitemiddei de eksposysje 'Beestachtig' iepene wurde, dy giet ek net troch.
Even letter wie se wer feroare yn De juf Annach sa 't er dy fan skoalle koe.
’ ‘ Toe poep!
De Pin:
It hat moarntiid west en jûn, de twadde dei.
HAADSTIK 6
Ik nim oan dat it in taal fan it Swarte Lân is, want it is leech en gemien.
As de ynvaazje mei bommen komt, kin elk foar himsels opkomme, mar hjir wie de eangst foar de ûnskuldige en goede kristenen.
Se kinne aanst rêst genôch krije!
Hy wie read oanrûn.
[Tsjin De Pin] Want as er aanst achttjin is, dan falt se op him.
De provinsje springt dêr yn syn belied op yn troch as útgongspunt fan hanneljen te nimmen:
As it moai waar wie: 'Sille wy even nei de bosk?' Kinne se in iisko.
It eksamen komt tichterby.
Mar de beneaming yn 1985 fan Foppe de Haan as nije trainer-coach liket mei ynjûn te wêzen troch deselde doelstelling.
Eins wie it mei de komst fan Jelle al begûn, dat alles har by de hannen ôf bruts.
Hy frege him ôf oft er foar syn hiele libben skeind bliuwe soe en hoe 't se har reis ferfolgje kinne soene.
Boargemaster Sluiter oerleit freed mei de fraksjefoarsitters fan de measte partijen.
Marianne Vaatstra waard yn 1999 by Feankleaster ferkrêfte en fermoarde.
Nei it ôfsluten fan syn stúdzje gie er wurkjen by de Palense-Young Studio dêr 't er advertinsjes en omslaggen fan tydskriften ûntwurp.
Om dy dochs in bytsje in neiere blik yn ús libben te gunnen, sil ik tenei út en troch in stik fan in gewoane dei beskriuwe.
Gormley ûntfong yn 1994 de Turner Prize, waard yn 1997 ûnderskieden mei in OBE en yn 1999 mei de South Bank Prize for Visual Art.
Ta gelegenheid fan it tsienjierrich bestean fan it sjongfestival foar minderheidstalen wurde inkelde fan de bêste âld-dielnimmers en - winners nei Ljouwert helle foar in langer optreden.
Hy wurket foar meneer Boffer yn Overheuvel en giet nei it Noarderkertier om te jeien.
De Lytsk tocht soms dat it sels libbe, benammen doe 't pake him sjen litten hie dat der ek lytse mantsjes en wyfkes mei snijd wurde koene.
Efkes letter waard der op 'e doar kloppe.
Om yn ien eachopslach dúdlik te meitsjen oan hokker problemen Lwd 2018 wurkje wol binne der fiif posters makke.
Nederlân helpt flechtlingen.
De klanten en meiwurkers fan de Friesland Bank geane takom jier oer nei de Rabobank.
Op 'e slavemerken fan Tunesië sil Rudolf fan Amstelveen net te keap oanbean wurde.
In soad Fryske bern prate thús en mei freontsjes meardere talen.
Oer de strontreed dreau, oant yn 'e stâl fan it oantinken.
As bern gong ik mei ús heit te swimmen, alle moarnen om healwei sânen by him achter op 'e fyts nei Skeveningen.
Ien dy 't altyd en ûnder alle omstannichheden deselde bleau, dêr koest by wize fan sprekken de klok lykop sette!
Letter wisten se dat net mear.
Simone blêde werom.
Op de stúdzjeseal binne foar it publyk (neist in tweintichtal standert kompjûters) fjouwer fan dy apparaten pleatst.
Hy tocht, och, bern krije wy doch net mear, dêr binne wy njonkenlytsen te âld foar.
De kûpee is hielendal wytskildere.
Oral = frjemdling.
Do giest der mei my hinne, as myn frou, do wurdst in Afghaanske.
Hy flústere ûnfersteanbere koarte leave wurdsjes.
De gefaarlikste gemeente fan Nederlân is Amsterdam, sa seit de misdiedmjitter yn it Algemeen Dagblad.
Ien hân line tsjin de sponning fan de mitsele doar.
Tiisdeitejûn is yn Aldwâld in besletten ynformaasjejûn oer de saak-Vaatstra en oer de oanhâlding fan de Gordykster.
Of krekt net, krekt sa 't hja it ferkeas.
Hy krige in sigaret.
Hja wie kommen foar in koarte besite, mar hja makken elkoar sa sterk dat it ferbliuw gjin wike en gjin moanne duorre, mar it waarden jierren en yn dy tiid begûn Salomo al mear fan har te hâlden.
Myn spieren protestearje sels.
"Mar Tsjits wol," lake Hedzer, "en Tsjalling sil der neier fan heare, want it fanke hat ús jûn ferteld, dat hja in bern fan him ferwachtet."
Net dan?
Dat dogge wy troch op projektbasis subsydzje te ferlienen yn it ramt fan in oanpaste regeling projektsubsydzjes, dêrby sil in wichtich kritearium wêze hokker bydrage de inisjativen leverje om de mienskip te fersterkjen, bygelyks (ynter)nasjonalisearring fan produksje, de mjitte fan ûndernimmerskip dy ’t soksoarte inisjativen generearje, ensfh.
Dy soene him helpe.
Sa jouwe sûnde en frees oan in simpel barren
Anton bliuwt by my.
It sealdakje dutsen mei tarre papier.
“Ik woe wol dat ik op Gandalf wachtsjen bleaun wie, ” preuvele Frodo.
It is grif net beskreaun fan wa 't dy stikken lân binne.
Gaadlik foar it wrotten yn 'e klaai.
Dat joech oan dat it healwei tolven wie.
Dat docht bliken út ûndersyk fan it Sintrum Frysktalige Berne-opfang (SFB).
Net ien fan ús benijde Frank om syn post.
Miskien jout it folgjende briefke út 1955 wol it bêste waar wêrom 't guon Toutenburg preverearje:
Ik kin noch hieltyd net oer waarmte en bin bliid dat hjoed de wyn behoarlik blaast en it sintsje dochs skynt.
De Fryske topfertsjinner is Wander Blaauw fan Zorgpartners Friesland.
Thús like er lytser, matter, âldsk.
Oarspronklike, Frysktalige produksjes ûnder lieding fan Hoite Pruiksma waarden ôfwiksele mei oare heechsteande útfieringen fan wurk út de muzikale kanon.
Ik stjoerde trije fersen yn mar
- Wat?
Dizze kontakten en konsultaasjes jouwe oer it generaal in posityf byld fan it draachflak foar de Streekkoöperaasjes op útfieringsnivo.
Hy wie sa bang as in kat yn in sleat.
Muzikaal yntermezzo troch Anne Feddema & Martin Beekman
De saak is ûndersocht, mar it is in riedsel hoe 't de katten yn de Luts bedarre binne en oft der sprake is fan dieremishanneling.
Taljochting
Miskien is it sa dat yn in tige hopeleaze situaasje wurden dochs wjerklank fine.
Doel: Pjutten wurde safolle mooglik opfongen yn de eigen memmetaal en wurde boartsjendewei yn oanrekking brocht mei de oare taal.
Mar as de oerstekplakken yn 'e Revier yn 'e hannen falle soene, wat dan?
'O dat,' sei er.
Gelokkich hawwe de partijen neffens Bats op tiid ynsjoen dat in akkoart de bêste oplossing wie.
‘ It hie net hoegd, ’ sei de man noch.
It Rôggefeest is in strjitfestival dat altyd op de earste freed fan augustus yn it doarp Nes hâlden wurdt.
En hy skreau poëzy.
"It skynt dat Daniël sels al nammen foar dat berntsje hie.
Ik tink dat it der bot op thús lykje sil.
Dolf wist earst net wat er hearde.
"Wa seiste?" Frege Sytse.
"De boa fan 'e frou siet ferkeard en dat haw ik doe mar efkes feroare, sjochste."
Ja, wat sil ik sizze.
‘ Sjit op!!! ’ raasde ik.
Takomstige âlden:
Mei sêfte twang late er Willem de treppen op nei in sliepkeamer.
Net allinnich op it mêd fan de Fryske beweging, mar ek yn artistike saken koene wy goed mei-inoar opsjitte.
Ljip bûket boppe greide
It Famke:
En dat sille wy ek dwaan, leave. "
Doe 't de prins al wer ticht by it kastiel wie, liet de sterke broer it hynder fan 'e prinses swietsjes sakje, en sadree 't de skonken wer lân rekken, fleach it as de wjerljocht ta de hoale út.
Dy kaam se tsjin of se rûn tafallich efter him oan, en witte jo, mem sjocht de minsken, dy 't se tsjinkomt, altyd sa oan.
Ik sil him op 't slot dwaan, antwurdet er.
Yn de foarm fan in skinking yn ien kear, in periodike skinking of in periodike skinking op de wize fan in liening.
De keuken siet rjochts, of lofts, hoe siet it ek alwer?
Betink wol - sa giest no nei de hel en sa moatst dêr bliuwe!
Deawurch sei ik: 'Ik ken gjinien fan al dizze minsken.
Wat lyts jild
Wy sjogge hjir in dúdlike rol weilein foar ús advysorgaan It Berie foar it Frysk om minsken út it bedriuwslibben mei in foarbyldfunksje byinoar te bringen.
Fryske taal yn it MBO
De koster frege dy by de doar yn it Nederlânsk oftst lid wurde woest.
In dragline boude duynfal
Ik frege wêrom 't er dêr no al oer prate.
Hy waard op 9 jannewaris ferline jier yn de tún by syn wenning deasketten.
De 50 fêste meiwurkers moatte opnij sollisitearje nei in baan by it bedriuw, wêrfoar 't se minder lean krije.
Likegoed bleau er by in soad populêr en waard er oant yn hege âldens eare.
Wêrom slagget my dat dochs net.
Mei ferskaat waard no net langer bedoeld in ferskaat oan kweekte blommen, mar "ekologyske differinsjaasje".
De kiel siet him ticht fan eangst.
1701 -1750 101
Miskien hat er him wol in gleske moed yndronken, al koest dêr neat fan fernimme.
Se krigen ek net gewoan foer út in pûdsje, nee, dizze fluiters moasten meiwjirmen ha.
Beweegde it byld?
Wa yn it kamp ken ûnderwilens net it ferhaal fan myn grutte leafde?
‘ In stuorke foar myn putterke Pyt, mynhear? ’
'De keninginne woe it him noch út 'e holle prate.
Dat testamint die er net mear yn de briefomslach dêr 't it yn sitten hie, mar hy lei it boppe yn it laad fan de skriuwtafel fan de notaris.
'Wês foarsichtich mei oerstekken...'
De krúswize ympulsen
It is wol in feit dat ferkâldheden benammen winterdeis en by kâld of reinich waar foarkomme, mar dit kin oare oarsaken hawwe.
Tongen begûnen har yn Hobbitum en Súdfliet te rearen, en yn it hiele Goa diene geroften de omgong oer it evenemint dat ophannen wie.
Op Skiermûntseach wurdt sa goed as wis yn maart of april in begjin makke mei de bou fan in nij besikerssintrum.
Se leine de aaien yn nêsten dy 't hast net te finen wiene.
De legers fan Grutte Pier en Grutte Wierd, neamd de Swarte Hoop, soene op 24 juny 1517 mei ferskate findels oantaast wêze op 'e hichte fan Wervershoof.
Doe kaam de dei dat it regear it beslút naam om de transporten fan Nederlân nei Biak te ferbieden.
It oarspronklike Reade Boek is net bewarre bleaun, mar der waarden in soad kopyen fan makke, benammen fan it earste part, yn gebrûk fan de neikommelingen fan ’e bern fan master Sam Gewissies.
'Hjir hast dyn jild.
"Patsinen, bedankt.
Van Koops ha ik leard om earst nei it gehiel te sjen.
"Mei alle wille.
Doe 't ik mear witte woe, joech se my in yndruk fan sa 'n wapendropping - alwer in nij wurd.
UTFLICH
Doe 't syn heit tusken beide komme woe, waard er mei in mes stutsen.
Meartaligens fersterket it fleksibele tinken en is dêrby wer fan ynfloed op it selsbetrouwen fan ús mienskip.
Om tolve oere lei er al lang op bêd.
Hokker earmoed?
Wêrom soe ik der fierder oer neitinke.
‘ Och stakker, ’ sei Beppestyn.
Mar in bytsje rjocht op earnst ha ik dochs ek.
‘ Nee. ’
Syn bondel gedichten Op ferbard gebiet wie amper ferskynd of hy smiet syn krisis-roman Burgers yn need op tafel, in boek dat mei holle en skouders boppe de rest fan it Callenbach-fûns útstuts.
'Mynhear hat my... yn myn gesicht slein...'
Hja wie koart en de hannen trillen har troch alle koppen kofje.
Dat wiene twa knapen.
Troffen stêden en doarpen binne ûnder oare Egmond, Bergen op Zoom en Saeftinghe.
Op 't lêst kaam de winkelhâlder op syn gerop fan 'folk!' Neieroan slofke.
It duorre net lang doe wie er ien fan 'e ferneamdste smidden fan 'e hiele wrâld.
De orizjinelen fan dizze registers berêste yn it Deenske Ryksargyf (Rigsarkivet) yn Kopenhagen.
Ik hâld de dagen by, ik slút de doarren en yt de fragen fan de listen op.
Dat wie libbensgefaarlik.
En ja, de âld man kaam op syn weromreis del en kloppe by dy rike minsken oan en se setten him it fynste foar dat se hiene en hy bleau der oernachtsje.
Alle dagen kaam der in protte post: De earste brief dy 't ik krige wie fan dr Geelkerken.
'Hoe fine jo it?
Hja woe neat hâlde, dêr 't Mem oan hechte wie, sei se. ’
Doe 't ik de mûle iependie om de fraach te stellen, hearden wy fuotstappen op 'e gong.
`Lekker, 'sei ik.
Soms krij ik it te kwea.
De katolike feestdei falt dit jier op snein, mar de fraach is oft dy dei wol geskikt is om by de doarren del te gean.
Busstasjon Easterwâlde
'Sadree 't Dom Thaddeus fan it duvelske plan hearde, is er fuortgien om de biskop fan Genua yn te ljochtsjen.
Foar de Elven beweecht de wrâld, en hja beweecht sawol hiel fluch as hiel stadich.
Yn in lange prosesje fan dûnsjende en sjongende minsken waard er nei it alter op it grutte poadium laat.
Boppedat fersterket ditsoarte tapassings it imago fan it Frysk as eigentiidske taal, wêrtroch 't ek de jongere doelgroep oansprutsen wurdt.
Dêr ’t brea yn slommet dat de minsken baat;
Fan Caparis holpen 50 frijwilligers mei om de Bonkefeart sniefrij te krijen.
Dat seit de nije foarsitter Ultsje Hoper fan de Frysk Nasjonale Partij.
De buien, de útlittingen oer Margot, mem en heit begryp ik noch likegoed as ha ik se juster skreaun.
Ferline jier wie it festivalterrein op it Griene Strân en tsjin de sin fan in groep Oerolgongers is it ferpleatst.
Mei syn grutte kamera tusken de grutte en de lytse bear.
Reagearje dan hjirûnder of nim kontakt op mei de redaksje.
‘ Wya sjocht yn elke man sawat dy fint fan har, ’ prottele Nel, ‘ se hat no in oare bril, miskien... ’
Wat ditsjes en datsjes útwaskje, de koffers oprêde, sokke dingen.
Acht oere is de bêste tiid om my te beljen, hie er sein, dan bin ik grif op mar noch net fuort.
Ik begryp it net en wurd der soms segrinich fan.
It iennige dat Willem fertelde hoe let oft it wie, wie it steande horloazje yn 'e ytkeamer.
'In marterfel miskien?' Hold Gargilius fol.
Hy begûn de grûn om de peal hinne út te graven.
It die bliken dat de dikte lykwols fan alle stellen boutsjes kaam en de berntsjes groeiden net, lit stean dat se berne waarden.
Spilers wolle har bewize, fiele harren somtiden frustrearre, krije wolris in skop.
Doe 't ik klear wie, gong ik op 'e brits lizzen.
Yn dit konvenant ferplichtsje provinsjes harren ta ‘ it aktyf gearbringen fan gemeenten, wetterskippen, erfgoedynstellings en eventueel ek biblioteken om gearwurking op gong te bringen, sadat obstakels tusken partijen weinommen wurde.
Hja soe it sjen wolle, mei nei hûs nimme faaks sels, it yn in doek bewuolje en earne begrave, mei Sjoerd tegearre.
Se aaiden de katten, dy 't op 'e skoarstienmantel leine, en se skopten tsjin de bollen wol, dy 't oer de grûn slingeren.
Boargemaster Bearn Bilker fan Kollumerlân fûn de jûn hertferwaarmjend en seit dat de ynwenners harren meilibjen foar de famylje útsprutsen hawwe.
De âlde doarpkes en de lytse stedsjes hat er ynwiksele foar in toerflat yn de Grutstêd.
Hy sei ûnder oare: Ik besefte dat ik as dieder nei foaren komme soe út it DNA-ferwantskipsûndersyk.
Maatskiplike belutsenheid wie der hast net, de bining mei de basis ûntbruts.
`Jawis, dat is Klaske.
Tsja? ’
Jo geane dêrfoar yn petear mei de ôfdieling kommunikaasje om nei te gean oft der (foarmjouwings-)opdrachten útfierd wurde kinne.
Mar yn pleats dat er syn bout fan it plak tôge, waard it hynder wekker en sprong oerein.
‘ Wat hast no úthelle, jonge?
Hy waard sels ferrifele, krekt as wy allegearre. '
Se skodhollet, der komme triennen yn 'e eagen.
Ik kin der net goed oer.
Ik soe him der in tút foar jaan wolle, mar dat paste net op dit stuit.
Hy seach mar foar him as siet er yn djippe prakkesaasjes.
2.
“Ik ek net, ” antwurde de tsjoender.
De Wallinga grypt wèr te heech en men hellet dy kear wer op, dat dizze selde boer allyksa in nederlaach te ynkassearjen krige, ja sels de skimpende bynamme "gouden" swipe "- boer, dy 't men Douwe doe joech wurdt wer neamd.
As de romte net langer mear is,
By de lokaasje fan de âlde poarte sit op dit stuit in brassery en in strjitte mei deselde namme.
Kêst 239
In camping meitsje yn in âlde skâns dy 't yn it ferline troch soldaten brûkt waard as skûlplak is in oar foarstel.
‘ No, juffer Sjoukje, hoe fine jo him wurden?
'Sy sit yn myn plak finzen en wa wit wat der mei har bart.
En as ik al it gelok en de moed hie om my tusken in pear hastige groepkes troch te wrotten, dan seach ik kweade gesichten en waard ik útskolden.
Ik besleat de saak sa gau mooglik oan de bestjoerspost troch te spyljen.
Dolf besocht it te begripen, it slagge him mar heal.
It waar wie fansels net al te bêst, mar de besikers, dy 't foar in part yn tintsjes sliepe, lutsen har dêr mar net al te folle fan oan.
No de twadde: Brecht van Zoomeren fan de kursus 'Binnenshuis Tuinieren' fan twa jier werom, se wenne doe yn Dalfsen en ik socht har nûmer op fia ynternet.
Stank foar tank wurdt soks neamd.
Mar it koe net.
Alles wie klear.
‘ Sa ’ tst ’ wolste en Douwe siket in oanrin om it petear te begjinnen, mar Ate is him foar.
Dêrby is gebrûk makke fan in helikopter, boaten, speurhûnen en de ME.
`Hoe gefaarlik is dit, Dineke? '
Mei de buizen moat it wetter ôffierd wurde.
Us wykmenu fan middeis bestiet út: Brune beane, eartesop, ierappels mei moalballen, ierappel-chalêt, by de graasje fan God nochris raapstelle of ferrotte woartels en dan mar wer brune beane.
Ik sis fansels wer fierste folle.
De gerdinen fan it rút boppe him wapperen nei bûten.
Op in jûn bliuw ik by Ghalil sliepen.
De leden fersprieden har letter oer hiel Amearika.
Fiskers en ierappelboeren smite yn har kream de rapen gear,
Wol trije pasjinten ferstoarn oan de baktearje.
Bea wolst hiel graach ris sjen. '
Yn it pân wie yn de 17e en yn de 18e iuw in gortmakkerij fêstige.
En dat is de omkearde wrâld, want in man heart de baas yn 'e hûs te wêzen.
Benammen de wurdearring foar de ynternetside springt yn positive sin yn it each, mar út de enkête docht bliken dat hieltyd mear minsken argiven rieplachtsje fia it ynternet.
Ik woe graach datst... "
Dat hearden wy letter fan De Gaal, dy 't him as bern kend hie.
It is der in stik nofliker, ôfsjoen fan de rein en de modder.
Dyn praat folslein yn riedsels.
De boargers yn Bolzano tinke dat wy ûnderweis op syn minst tweintichtûzen ferlern hawwe.
Letter op 'e dei, as de slepende ferhalen ôfnimme, as de lomens ferdwûn is, sjongt heit lûd en galmend - as bern woe er by de opera-en makket de bern dy 't út skoalle binnenkomme drippen oan it skrikken troch ynienen de sjipkwast ûnder de noas te triuwen.
Se joech my in pear fan dy frjemde lange badstoffen lapen, dy 't ik wolris oan wasklinen wapperjen sjoen hie, my ôffreegjend dêr 't dy dingen foar tsjinnen.
Wannear 't de Ried fêststelt dat binnen de foarskreaune perioade gjin effektyf gefolch oan syn oanbefellingen jûn is, kin er syn oanbefellingen iepenbier meitsje.
De sek waard ûnderstboppe keard en wat glied der út, Snotposjes!
Yn har rûn de line troch dy 't de Ypeij's útset hiene.
De Pin:
Dêrom is in rommer fangstkwotum foar snoekbears net nedich.
Ynienen sprong Aragorn oerein.
* Foarming fan in budzjet Kulturele Eveneminten fan €250.000 en opnimme yn de oardering Taal en Kultuer.
Eveneminten en festivals
Pas doe 't de skimer ynfoel weagen se har nei ûnderen.
It wurd "omnibus" is ôfkomstich út it Latyn en betsjutte oarspronklik "foar elkenien".
De needbestrjitting leit der noch, der is amper strjitferljochting en de strjitten binne geregeld fol mei bulten modder en stiennen.
Fierderop by it passearjen fan de Julianastrjitte rôp ik útdaagjend 'Prikkebuert' om my dêrnei mei de klompen ûnder de earm yn feilichheid te bringen.
Letter betrape ien fan ús hier mei Blomke yn 'e bosk.
Om noch efkes by mefrou Van Daan stean te bliuwen, kin ik dy sizze dat in boarne fan konstant argewaasje foar my har flirtpogingen mei heit binne.
Doe helle ik de koarkelûker út 'e bûse fan 'e skelk en sette him sa op 't boarst.
Seis en sân: Oer heit en my sil ik mar net folle sizze.
Ik wenje yn in barak mei in soad oare minsken.
En dat nei watst allegear tsjin my sein hast. '
It Fryske Aksjeboek foar bern waard útjûn troch de Afûk yn opdracht fan de Stichting It Fryske Boek / It Fryske Berneboek en Tresoar foar de Fryske Berneboeketiid 2011.
Ik skatte him langer as 1.85.
'Mar', sei se, 'ik kin jûn net werom, want se wolle my it hûs net mear yn litte'.
‘ Ljocht út, súntsjes nei boppen, wy ferwachtsje plysje yn 'e hûs! '
En dêrom hoopje ik dan ek, dat ik hiel gau wat fan jo hearre mei.
'Hy hie wol in ferklearring betinke kinnen.'
Dan slacht er de jenever yn ien kear troch de strôt.
- fergrutting ynkomsten betelle tsjinstferliening mei 20%.
Foar it útfieren fan dat belied kriget útfieringsorganisaasje Keunstwurk, dy 't koepelorganisaasjes fan amateurkeunsten stipet, struktureel subsydzje.
En wat dochst dysels net oan, doe trof ik Jaap, ik rûn stomwei tsjin him oan en hy sei, dat syn doar dei en nacht foar my iepen stie, en dat fûn ik o sa leaf fan him.
Ik luts fan út A in line dy 't hast heaks op X stie.
Se blêden mar troch.
Ferfallen yn wiidlopige ferhalen,
De golle minskefreon mei de waarme tekken,
Tankewol.
Der moat in rekest nei de Europeeske Ried, nei de minskerjochte-organisaasje en mooglik ek nei Amnesty, want dit soarte fan martelpraktyk en - it ôfknipen oant de dea derop folget - moat heechnedich foar it fuotljocht brocht wurde.
Dat jildt ek foar antydiskriminaasjeburo Tûmba, sy reitsje 20% fan harren subsydzje kwyt.
Mei in swarthanneler! 'Heit hie der blykber beswier tsjin.
Elkenien is jaloersk.
No wachtet de frou om wurch en wyld oan te heljen
Bûten stean mear fan sokke barakken en om alles hinne is in stek fan stikeltried.
It mantsje stapte troch de winkelstrjitten,
Mar ik snap wol datst leaver nei in freondinne giest. "
Mar hoe?
Is like waarm as har kofje.
`Nee.
It wie in fraach, dy 't hja harsels al faak steld hie, mar dêr 't hja noait in antwurd op fine koe.
Troch de rivier kin fisk wol fan swiet nei sâlt wetter swimme.
It ûnderhâld wurdt dien troch deselde spesjalisten dy 't ek yn 1997 it ûnderhâld útfierd hawwe.
Mar út alle mooglike hoeken en gatten kamen de nûmers, útsein út ús stêd.
It soe gebrek en kjeld wurde, want dy twahûndert gûne wiene yn dy grutte húshâlding ek al fuortraand.
It wie dyselde jûns folle moanne en sadree 't de moanne boppe de bergen útriisde, fleach de earn mei de jongfeint op 'e rêch heech yn 'e loft en bleau stean boppe it plak dêr 't de rivier út 'e rotsen sprong.
De besluten dy 't yn de leden 8, 9, 11 en 12 neamd binne, wurde troch de Ried op oanbefelling fan de Kommisje nommen.
Yn de effektmjitting wurdt oanjûn op hokker wize de ûnderskate projekten bydrage oan de ambysje foar Noardeast; oan de sosjaal ekonomyske ûntwikkeling dy 't beëage wurdt.
Ik kin dy wol fersekerje dat, doe 't ik om njoggen oere op bêd gong, ik de skonken noch net rjocht hâlde koe.
It wie werklik oandwaanlik om dy jonge dêr stean te sjen en syn stim oer de weagen skallen te hearren.
Ek yn 2012 organisearret de provinsje Fryslân dizze gearkomsten wer yn gearwurking mei de VFG.
Op har sil it ferslach grif yndruk meitsje.
Se moast it allegearre ris witte, tocht ik.
Net ien oars as hja sille it lân om 'e marren hinne fannijs ta in paradys meitsje. '
Hoe 't it ek wie, it wie geregeld hommeles tusken him en de wurklju.
Guon sykje yn boeken eigenaardichheden dy 't se sels wolris betocht of meimakke hawwe, mar dêr 't se net oer prate doare.
Om de Fryske literatuer in grutter poadium te bieden as ús provinsje, ûntwikkelje wy yn 'e mande mei it Nederlands Letterenfonds en Tresoar de brosjuere Books from Fryslân.
De goedhillichman lei om healwei alven hinne mei syn boat oan de Kade yn it doarp.
Ha, menear, 'sei er doe tsjin Jaap, dy 't yn in wolk fan deodorant de keamer wer yn kaam.
'En it is ek nochal earnstich', seit de wûnderdokter, 'hawwe jo soms in ûngelok hân mei in wein?
De reedrydster rûn in startbewiis foar de Spelen mis om 't se fjirde waard op de 3000 meter.
De fijanlike troepen wurde sûnder meilijen yn 'e see jage, 'sei de nijslêzer.
'Hâld dy stil, domear!
Neffens my is in minske in hiel oar wêzen.
Ik fertel it dy yn fertrouwen.
VI en Johan Derksen wiene foar de rjochter dage fanwegen it artikel VI en de útspraken fan Derksen yn it programma VI by RTL.
Foarwerpen en plaatsjes beneame
Hja wit ek altyd út te finen oft er in faam hân hat en ek hokker faam, en tsjin Jouk doart er dat wol te fertellen.
Se hoegde noait te laitsjen, ek al brûkte er noch sokke âlderwetske wurden.
Anselmus stiek beswarrend de hannen op.
Is it om 't ik nei Afganistan gean?
Foaral mei lêstneamd blêd hawwe wy jierren lang in trouwe en bliuwende freon-fijân-relaasje ûnderhâlde mocht.
Merten!
Dokkum waard just in sintrum fan missyaktiviteit ûnder de Friezen.
Ik wol dat je optimaal funksjonearje yn it libben, en je libje mar ien kear.
Wa 't ik wie, wat ik die, wêrom 't ik ûnderweis wie.
Stânbyld fan heechspanning
Troch langst
Mar wat in spektakel om neat. "
Rêstich.
Veenstra moat opstappe
'Ik siet te wachtsjen op dyn telefoantsje,' brocht ik wat ûnnoazel út.
Grealt naam my de holle yn 'e hannen en beseach my.
No 't syn kapsalon ticht is en de apparteminten net ferhierd wurde kinne mist Feddema alle moannen tûzenen euro's oan ynkomsten.
Soene se nei de befelen fan Rudolf fan Amstelveen harkje wolle no 't har eigen kommandant him yn 'e stêd befûn?
~IN MAAIE LEEFTYD~ (fragmint)
Al jierren naam de belangstelling, stipe en sponsoring út Boalsert ôf.
Dêr binne no ek de gemeenten Achtkarspelen, Dongeradiel, Littenseradiel, Skylge, It Bilt en Kollumerlân by kaam.
De Feansters wûnen sneontejûn yn eigen stadion wol mei 1 -0 fan AZ, mar dat wie te min om it 3 -0 ferlies fan ôfrûne wike te kompensearjen.
1.
Plicht hee?
De heit wie spinnijdich en die syn beklach by de presidint sels. ~~~ Hy easke dat de bern weromhelle waarden en draafde as in gek hinne en wer tusken it ministearje en de ambassade.
” Hy lei de hân freonlik op it skouder fan ’e hobbit; mar Frodo fielde dat syn hân fan ûnderdrukte opwining trille.
It wie oan 'e iene kant in ferromming, dat hja no mei him oer de jildpine praat hie, mar oan 'e oare kant fielde hja har dochs ek in bytsje teloarsteld.
Dyn Anne
Yn it wykein kearde útgeanspublyk yn Kollum en Boalsert him tsjin de plysje.
De heidebewenner waard poerrazend en hitste syn hûn op de kat ôf.
In Roomske Fries
Om it ferskil tusken earm en ryk, leafde en haat, oarloch en frede, himel en hel.
Hy wie it mear as sêd altyd troch syn maten útlake te wurden.
De measte minsken dogge de dingen net om 't se der wille oan belibje.
'In bytsje?
It doel fan provinsje Fryslân en de oare haaddielnimmers foar ûndernimmers waard ferwurke yn de slogan: “In het hart van de ondernemer ”.
It útferkochte WTC seach in muzykteätershow mei 100 Fryske hynders, sjongeres Nynke Laverman en kabaretiêre Brigitte Kaandorp.
Kommissaris fan de Kening John Jorritsma hat freed it kondoleânsjeregister ûndertekene fan de 10 - jierrige Yrsa.
Dy is fan 'e moarn op it hiem fan it Frijhôf kommen yn syn earste ploechskuon mei om 'e skonken de nije wite ploechkappen, oan 'e kant sletten mei fjirtjin knopen en in rymke ûnder de skoech troch.
In byfoege los feltsje papier befette it fersyk om de foarige brief as net ferstjoerd beskôgje te wollen.
De Dino poerrazend, de klasse laitsje, en De Huk wie de held fan 'e dei.
Wat wurdich der al net oan geheime wittenskip rûn yn sa 'n âldmannekop?
Mar sis dat yn godesnamme noait lûdop yn it fearhûs. '
Wikenlang wiene se al ûnderweis, se hiene lijen trochstien, ûnder de bleate loft slept, wylde bisten oerwûn, âljende rivieren trochwaad, tsientallen kearen har libben weage.
In fersetsgroep moat it guod, dat ferpakt is yn grutte metalen bussen en dellitten wurde oan parachutes, opfange.
Typearjend is ek dat der yn 1909 troch de timmerman fan Tytsjerk in spesjale maatstôk makke waard om de hichte fan de agaves mjitte te kinnen {7}.
Beswiermakker ûntfangt sûnt meardere jierren op grûn fan de Notysje Streektalen 2004 in periodike subsydzje, dy bedroech yn 2011 €49.275,00.
Ik soe sizze, jou my mar in ryksdaalder! ’
“It is net folle fan belang wa ’t de fijân is, as wy syn oanfal net ôfslaan kinne, ” sei Gandalf.
Kom poppedyn!
It Iepenbier Ministearje hat tongersdei foar it gerjochtshôf 30 jier selstraf easke tsjin de man dy 't Murkje de Vries om it libben brocht.
De wet fan 'e swiertekrêft neamst dat, 'besleat ik gewichtich.
- ymplemintaasje e-depot y.g.m. Nasjonaal Argyf foar alle oerheidslagen yn Fryslân.
Nei alle gedachten binne de beide bruorren letter wer nei elkoar tagroeid {5}.
Ja, hy hie der earst gjin erch yn, hear, oare moarns stie Hedzer dêr altyd, mar no...
Yn de eagen fan syn heit wiene dat mar fratsen, dêr 't er him lilk oer makke.
It binne der njoggen yn getal, wêrfan sân manlik en twa froulik.
'Is dat de tegelhazze?
Ik fyn it prachtich, hear, mar de lêzer wurdt sa ferskriklik ferneukt.
Sawol fan de besikers as fan de minsken dy 't oan it festival wurke hawwe. "
Oan 'e ein fan dy wike soe ik dôf wêze en de earste de bêste dy 't oer wat hearliks prate soe tige tankber wêze.
“Gjin sprake fan.
Yn 1988 krige de omrop in offisjele stjoerfergunning fan de eardere minister Neelie Smit-Kroes.
‘ Myn God, Lysbet, ’ seit er dan, en de triennen sjitte har yn 'e eagen.
9
De kleurige neonljochten soargje dat it gehiel - de sân minsken - yn beweging liket te wêzen.
Ik hâld noch altyd fan dy, mar myn leafde is yn de rin fan de tiid, hoe sil ik it sizze, 'susterliker' wurden.
De Hollanner:
Syn frou sei: 'Dêr hast it tal.
26-4-2004: Histoaryske rjochtsaak as rollespul.
Ik woe lekker rêstich kuierje en sjen, mar ik rieplachte sa faak myn horloazje út eangst te let werom te wêzen by it stasjon, dat dy kuier net waard wat ik ferwachte hie fan myn earste moeting mei Amsterdam.
- krekt no, no 't se allegearre sa ferromme wiene, dat hy der wer ris in wike op út gie, wat like te wollen, in doel hie.
Mar as wat wurde perfoarst moat dan wol ik alle dagen farre.
Doe 't De Grutsk noch lyts wie hiene hy en syn freonen der nocht oan om mei lytse stientsjes te besykjen fûgels fan harren nêsten te jeien.
As ien bist sei, begûn er te skatearjen.
In grut part fan 'e gearkomsten waard trochstrings wijd oan 'e problematyk fan it bemeallen en bedykjen.
Harrejakkes, dat dêr altyd it byld fan in geryflike wenning yn in Frjentsjerter strjitte trochhinne spûke.
6.
Wy ha it oan net ien ferteld en wy hiene it miskien foar ús hâlde moatten, mar sa giet it no ienkear fan 'e middei.
'Wolst dochs wol mei my?
Wybren Hogerhuis waard fertocht omdat er faak by Haitsma oer de flier kaam.
Der hoecht mar ien op myn doar te klopjen of sy stiet by my yn 'e keamer.
'Hy wie op stjerren nei dea.
Minsken makket dat neat út.
Hja harken eefkes nei dit bemoedigjende lûd en waarden doe wei fan ’e kêden.
As stie er ûnder de dûs by in swimbad, want it sâlte swytwater fersprate him oer de earms en skonken.
Dêraanst hie er yn syn bûsen wat wûnderliks ûntdutsen.
Hans bliid.
As militêr befelhawwer fan België en Noard-Frankryk publisearre Falkenhausen in oantal anty-Joadske dekreten en waarden út syn namme in hiel soad Belgen twongen tewurksteld.
It die bliken dat dit reizgers wiene dy 't yn de lêste tiid ek samar ferdwûn wiene.
Sy binne har net bewust fan de selsfersekere, ymposante stal mar lykje yn harsels ferdjippe, poetse de wjukken of sjogge nijsgjirrich nei it gewoel op de Turfmerk ûnder harren.
Mar it soe noch twa folle dagen duorje ear 't er it brief ôf hie, en yn in slúf die, dy 't er soarchfâldich tichtslikke.
Se wurde ôfnaam troch in patatfabryk.
Neffens him barde dit, neidat yn de klasse al ferskate seksueel tinte opmerkings makke wiene.
De Ekka die op 'e nij har skurte iepen en alles wat út har wei kaam, lei se yn 'e wûndermoaie skulp del.
“Hy hie in protte hân, der is gjin twivel oan dat er kweld waard, en de frees foar Sauron leit him swart op it hert.
Fergees moanne Anselmus de nerveuze muonts ta kalmte.
Mar se wie noch net fuort, of de buorfrou fertelde it oan har buorfrou en dy briefde it wer oer oan in tredde buorfrou - it duorre mar in suchtsje of de hiele streek wist, dat dy man twa de strôt ôfsnien hie.
Foar dy potinsjele aap hâlde dit lân liket wol lykwichtich
Yn dit ramtprogramma:
Siket om in leave, snoade frou.
Fansels, dy atleten leveren prestaasjes, dat soe er net ûntkenne.
Sy kochten ûnder oare djoere boaten en auto's en hawwe meardere huzen.
Doe seach hja Tsjits oan en doe telde har eigen leed net mear.
Der wiene dy deis nochal wat minsken op de saak ôfkaam en de Ljouwerter plysje dreau mei wapenstôk en wetterkanon it publyk - dat foar it gerjochtsgebou op it Saailân gearskoale - útinoar.
'Nee,' sei ik, 'it is myn poes en sy wol ek by my bliuwe.
Hy makket it sa lyts as er mar kin.
Douwe Ates tsjin Ate Douwes?
2.
“Nee, Frouwe, ” antwurde dy.
Anselmus wol avenseare, hy hat altyd haast.
It rûn tsjin 'e jûn oan, en sadree 't er de fluit oan 'e mûle sette foel wer it djippe gat yn it sân en kamen de wite wiven foar 't ljocht om by him sitten te gean.
Ik koe him net wer fine.
Hy skoot neist my op 'e bank en slacht de earms om my hinne.
Beskuldige fan ketterij.
‘ Wat moat ik mei dy rommel, as ik wat fine soe.
Troch Jezus Kristus, ús Hear, dy ’t mei Jo yn ’e ienheid fan de hillige Geast libbet en regearret yn alle ivichheid.
FREED, 21 JULY 1944
Groei siet der lykwols net mear yn.
`Hè, fanke, 'skrok mem.
Sa is der it Mercator Europeesk Kennissintrum foar meartaligens en learen fan talen, ûnderbrocht by de Fryske Akademy yn Ljouwert, dat in grut ynternasjonaal netwurk binnen en bûten Europa ûnderhâldt fan ynstellings op it mêd fan meartaligens.
Dy hopet dat binnen sân jier te realisearjen.
It siet djipper, it hong gear mei it hiele klimaat yn it grifformearde fermidden, dêr 't men mei Kuyper oan 'e ein fan it tinken like kommen te wêzen.
De kommende tiid sille de plannemakkers besykje om omwenners te oertsjûgjen.
Us twadde berntsje is kommendeweis.
In 22 - jierrige man út Ljouwert is sneon it slachtoffer wurden fan it besykjen ta berôving.
Ik knikte wer, sei: 'It is moai datst dat der allegear sa by dwaan kinst, by dyn baan.'
Foar har dochter like dat in útkomst.
Ik haw tsjin har sein dat se better net nei bûten gean kin fanwegen it raketgefaar, mar no moat se kieze tusken twa kweaden: Bedobbe wurde ûnder it pún of it risiko nimme fan in raket.
“Hy waard fan him ôfnommen, ” sei Gandalf.
5.3 Us benadering5 .4 Nadruk op twa doelgroepen
Fan 'e hege trambrêge ôf, acht jellen sawat, haw ik him falle litten en noch in skoft sjoen nei it buorreljen fan it wetter yn 'e haven.
De wynmûnen moatte tusken de 250 en 400 megawatt opsmite.
‘ Ja, ’ anderet Ate, ‘ dêr hoechst 'neat fan oan te lûken, dat is fansels mar gekheid fan dyn heit. ’
Yn 'e rin fan twa iuwen is it Nederlânske Keningskip ûnskiedber ferbûn rekke mei de parlemintêre demokrasy.
Kramer wûn sneontemiddei 'syn' 5 kilometer yn in tiid fan 6.10.76 en prolongearre dêrmei syn Olympyske titel fan 2010.
Begjin maaie kamen guon arbeidershúskes leech te stean en noch deselde dei of in pear dagen letter wennen der alwer oaren.
Sa waard dan besletten en der waard romte makke yn de grutte seal fan it paleis.
It is net maklik, mar it moat.
Yn 2011 is wurke oan it beynfloedzjen fan it Digitale Aginda belied fan de Europeeske Kommisje.
De doar klikt iepen, en hy rint de hal yn.
In taske fan Winnie de Poeh, kleuren fan Winnie de Poeh, dy wiene wol bekend.
• De kwaliteit fan it fak Frysk yn it basisûnderwiis en it fuortset ûnderwiis yn de provinsje Fryslân; Ynspeksje fan it Underwiis (juny 2006)
Dat stiet of falt mei lytse dingen.
Dat boek sil yn novimber ferskine.
‘ Dan silst bliuwe moatte. ’
4 jier.
It mei in wûnder hjitte dat ús heit nea wat fan myn nachtlike escapades fernommen hat, en dat it him, sa moat ik wol oannimme, troch gjinien oerskreaun waard.
Tankje sij de God fan David troch Jezus, syn tsjinner, dy 't yn deselde nacht dat Er oerlevere is, brea naam, God seinige, it briek en sei: Dit is myn lichem foar jim.
Mar dêr doelde ik noch net iens op. ’
It bedriuw makke woansdei bekend dat 1400 banen ferdwine.
Fermaaklik, dat soks har sa bot stuts, mar hja fûn it echt belangryk, dat har figueren nammen krigen dy 't pasten by it karakter dat har foar eagen stie.
De boer sei: 'Ik sil dy in wûnderdrankje jaan.
Arguminten
Rover wie Rover. '
De Pin:
De missy ferbea it ek.
Sa waard it grûnbesit foar harren stadichoan ta in morele kategory, dat wol sizze ta in middel om de ideology dy 't se oanhingje, út te dragen.
Der wie ris in jongfaam, dat waard nachts hyltyd besocht troch de duvel, en hy sliepte dan by har.
Ynienen rôp se my.
En omdat dy dêr oerdwers yn lizze moast, kamen se der ek oerdwers mei foar de doar.
Eva hat de opdracht krige om mei ien fan mynhear Mack syn hynders hinne en wer te riden tusken de mole en de pakhuzen.
Har hiele keamer stie fol blommen en se ûntfong mear as twahûndert brieven fan âlde bekenden en fan lêzers dy 't har wurk bewûnderen.
Earder in bern dat alles hie en dochs fuort woe.
Ik hie safolle tocht.
Lykas yn de Kadernota 2012 al oanjûn is, is by de besteande ynstellings in effisiencykorting trochfierd.
As rûn ik neist dy yn ús eigen fjilden.
Befoelen syn easken dy net? '
Ik tankje alle beammen datsto sûn bist.
Hja hiene beide al njoggenentweintich west, doe 't har earste bern kaam...
De priis is foars heger as ferline jier, doe lei dy op 33,87 euro.
'Nee, wêrom soe ik oprêde?
'Oate' wie al mear as fjirtich jier widdo.
De Masterblienders 1753, dat op De Jouwer ûntstien is, is útgroeid ta in wrâldkonsern, in jier lyn gie it bedriuw nei de beur neidat it him ôfsplitst hie fan Sara Lee.
Otto Frank hat dy nammen net oernommen mar syn famyljenamme oanhâlden, de nammeferoaringen foar de oare persoanen hat er oanhâlden.
Dat kaam troch it plak fan hanneling.
Herman Lubberts fan Britsum die dat.
'Spotgoedkeap?
Hy neamde har gauris syn segen en syn dofke en dan sleat se him waarm oan har weagjend boarst.
Hja seine dat de Njoggen fuort wiene, en dat jim ferdwaald wiene en in swiere lêst hiene sûnder lieding, om ’t Gandalf net weromkeard wie.
De namme fan dizze nota wie “Yn – en útfieringsnota Frysk ”.
‘ Dêr prakkesearje ik net oer, Mem, dat doch ik net!
We moatte ús dus tariede op de nije perioade, dy 't yn 2014 yngiet.
Fan 'e moarn wie er sa down as it mar koe.
De earste kear dat ik de happening yn Epouto meimakke, spile it boekje mei de kategismus in haadrol.
Hy krige 15 moannen foar syn oandiel yn de ôfparsing.
Puberpraat, sei de rêch.
Sacht lústeret er har namme - ja goed, se hat my jûn holpen om fan Bertha ôf te kommen.
Dat doarp soe dan earst wol stichte wurde moatte, want offisjeel foel de Burgerheide as gehucht, lykas sein, ûnder it doarp Burgum.
In fertelling oer en troch trije personaazjes.
Hy bûn de redens ûnder en ried de feart del, sûnder doel earst, mar stadichoan hurder en flugger, krekt of waard er earne hinne dreaun.
En dy Brandsma wie tige ferneamd en elkenien hie fan him heard.
Wêr sil ik noch foar soargje?
Net earst ôfwaskje en opromje?
Sa soe besjoen wurde moatte hokker lakunes oft der noch binne yn de resint ûntstiene keten yn de wrâld fan de popmuzyk tusken bands, de Academie voor Popcultuur op hbo-nivo, de mbo-opliedingen Pop en Media by it Friesland College en de Friese Poort, Stichting Friesland Pop en de poadia yn it subsidiearre en kommersjele sirkwy, mar ek hokker oare ketens op it snijflak fan kultuer en ûnderwiis yn Fryslân út te wreidzjen binne.
Ast trout, makkest sels mear kâns om dyn hûs te ferkeapjen.
En ik die myn bêst, mar ik koe ûnmooglik leauwe yn in God dy 't tastiet dat syn skepsels inoar sa ûnminsklik folle fertriet oandogge en har hyltyd, iuwen lang, inoar koeionearje litten hat.
En hy hat in bulte byinoar garre, dat kin ik dy fersekerje, foardat er op 't lêst betrape waard.
Ien of oar firus fansels...
Wichtich wie ek de oankeap fan de 'ruïne' fan Toutenburg.
De poppe brabbelet, docht klanken nei of gûlt om syn bedoeling dúdlik te meitsjen.
Se dreauwen my stadichoan by ruten en doarren lâns.
Dan hearde jim heit en mem yn 'e keuken elkoar ferwiten meitsjen.
Dolf seach syn eagen út, want elke bocht yn 'e stoffige wei makke in nij panorama fan bjusterbaarlike skientme bekend.
Ferbouwings
Wat tinkst? '
De Hollanner:
Mem gong de dagen dêrnei faak nei buorfrou ta, út eangst dat se oars by ús komme soe.
Fan de 84 parochys dy 't it bisdom Grins-Ljouwert earder hie, moatte der yn 2018 njoggentjin oerbliuwe.
Se begjinne moandei oan de wedstriid, dy 't lâns de Fryske alve stêden giet.
2
Wy hawwe elkoar strak oansjoen, hy my en ik him.
It djerre befettet fitamine A, B, D, E en K. It is ien fan de pear fiedingsmiddels dy 't fan natuere fitamine D befetsje.
Gjin hin op 'e dyk, gjin lûd yn 'e loft.
LANGEND de solidariteit tusken har folken te ferdjipjen mei achtslaan fan harren skiednis, kultuer en tradysjes,
In nij boadskip jaan.
In gast dy 't oan it lunchen wie by Lauswolt yn Beetstersweach hat woansdei in pearel fûn yn ien fan de oesters dy 't se iet.
Mar ik begjin dochs wat oer de gewoanten yn dit hûs te learen. ”
Ik moast fêst mar begripe hoe 't er my dan werkend hie, niis oan de bar.
Oant syn dea yn 1561 bleau de doperske beweging ferdield.
'De helte fan jim ken ik net heal sa goed as ik wolle soe; en fan minder as de helte fan jim hâld ik heal safolle as jimme fertsjinje.
As men de generalisearring op 'e keap tanimt, lykje beide perspektiven ek te korresponearjen mei it karakter fan respektivelik de Wâldfrysk en de Wetterfrysk.
Dyn hierren waarden pensielen en
As der groepen oanmeld wurde dan fan elk apart de gegevens notearje.
Hy hie himsels tasein, dat er Tsjalling foar Tsjits oer wize soe.
De froulju hawwe posters ophongen mei dêrop portretten fan harren manlju mei ôfplakte mûlen en de tekst mûledea en rjochteleas derby.
Aanst sitte we yn Petten en dêr mei it net mear.
"Nee, do seist it wol net krekt sa, mar it komt eins wol op itselde del."
De rjochtsaak begjint freed om healwei tsienen.
`Moai sa, 'priizge Twa.
Al dat reizgjen en ûnderhanneljen hat fansels fierste swier foar him west, ik frege my ôf, oft ik him net nochris, lykas doe yn Haarlim, fan tsjinst wêze koe as boadskipsjonge.
Fjouwer jier.
Jorrit Bergsma rydt ek op Maple redens.
Frede sy mei jo.
'Momint,' sei ik en helle ta syn fernuvering ek in blok.
Soarten as echt leppelblêd, see-aster en hinne groeie der in soad.
‘ Och, Douwe, ’ seit er, ‘ as Ate dy sa ris hearde.
Der binne genôch mooglikheden om it taalbelied noch fierder te yntegrearjen, wurdt yn dy evaluaasje steld.
51 CE, 1143 (N. Ypeij oan W. Eekhoff, dd 26 maart 1864).
It bern betaaste wat en seach Dolf oan.
Net allinnich wie er in goede lieder, hy wie ek yntelligint.
'Ja, myn soan.'
Ik wie hast gek wurden yn dat plysjehok yn Alkmaar, wylst it bûten sok strieljend moai simmerwaar wie.
Nei de oarloch komt men yn dit 'túnmemoriaal' ek adressen tsjin fan bygelyks de Giardine Botanico van Palermo, de Botanyske Garten fan Darmstadt, it Gartenbauambt der Stadt Zürich of de Botanyske tún te Brussel.
Yn de Ljouwerter rjochtbank wurdt tongersdei allinnich de saak Vaatstra behannele.
De See lei letter út dat it syn ôfdieling wie en dat De Tyn him net sa drok meitsje moast.
Gemeenten, ROC's en it UWV begjinne moandei mei in kampanje dy 't bedriuwen stimulearje moat om yn totaal 650 wurkleaze jongeren in baan te jaan.
Wat ik net yn it brief skreau, wie dat der klachten wiene oer Taddeus.
'Dat moatst moarn achter dyn bh stopje.
Kin ik myn bern sels soms net grutbringe?
Dat hat gefolgen foar leefberens en tsjinstferliening.
‘ Dy letters hast keazen.
Ien persoan moast reanimearre wurde.
Vermaning folge op fermoanning oant ik strafwurk krige.
Klapt syn hannen stikken.
De Koele - en Pelikaangemeente wolle dêrom apart fierder.
It giet dan ûnder oare om de Heak om Ljouwert, ferdûbeling fan de N 31 troch Harns, de rotonde by De Jouwer, de N 381 en de Sintrale As.
Eins soe der ek mei boarte wurde moatte, want in knikkert koe him pas helendal knikkert neame as er mei him spylje liet.
De maitsen hiene it âlde hynder opfretten, wylst it der noch gjin healoere lein hie.
Yn it ramt fan dat lid beslút de Ried sûnder rekken te hâlden mei de stim fan it lid fan de Ried dat de oanbelangjende lidsteat fertsjintwurdiget.
Der is noch hope op. Mar meitsje dy ree om in ferfolch te skriuwen as se weromkomme. ”
'Wat is der mei Mariecke?'
Der is even in frjemde stilte en tagelyk stoppet de trein yn Holwert.
Oant no ta wiene se gjin stjerling op de dyk tsjinkommen.
Wat tochten wy no eins?
Sei er, doe 't wy goed en wol op ús stuollen sieten.
Ik haw mis west, mis!
As ik dy sneintemiddeis by de waskmasines stean te wachtsjen, komt Nazar oanrinnen mei in papier.
Omed fljocht fanwege syn wurk as piloat nei oare provinsjes en keapet foar mar in bytsje jild ien of twa skiep.
Hy dikere troch it rút.
De measten leauden net yn tsjerken, mar as it derop oankaam, hongen se deselde iensidige opfettingen oan.
Faak tink ik: Ik moat dy twa weromfine, om se te betankjen.
De ferantwurdlikheid fan de Minister fan Justysje kaam yn it geding en hoe 't dy te rymjen wie mei de ûnôfhinklikheid fan de rjochterlike macht. "Strafrjochtgelearden fan namme bemuoiden har mei de kwestje en de diskusje ferbrede him úteinlik ta de fraach oft de kristlike partijen tastean soene, dat de sosjalisten har it privileezje taeigenden om foar de rjochteleazen op te kommen.
In bern koe men it noch net neame, dat wat dêr siet, yn dy búk, ûnder de hân.
Wylst do en dyn feint
Yn tinzen wei rûn ik nei de pastorij.
Njonken de riedseal wie it buro fan de plysje.
Ek oer it generaal wiene dizze jierren fjirtich rûzige en rûzige jierren.
Dy wie net op te foljen troch ien as Faroek, hoe 't er ek syn bêst dien hat.
Se is alle kearen benaud dat de fleaners dy 't oer ús huzen fleane, harren bommelêst fan faak wol in miljoen kilo op Bertus 'holle falle litte.
Foar har lei wer in rotsseal.
Want ik wit it net - ik fertrou it waar net.
‘ O nee?
‘ Mar... ’
It Histoarysk GIS Fryslân is te finen op www.hisgis.nl en fia ûndersteande link.
It is net de skuld fan my of Nikolaas dat wy sa lang ûnderweis binne.
Wy sieten yn ús sel fan muorren en fertsjusteringsgerdinen en myn sokken stonken nei opdrûge sniewetter.
Tresoar hechtet der tige oan om nau oan te sluten by it Fryske taal - en kultuerbelied.
Tongersdeitemiddei wie dochs al myn frije middei, en Jesse, dy 't middeis nei skoalle moast, soe nei skoaltiid mei Margriet mei nei de maneezje.
"Al it goede, dat ik hjir leard en ûnderfûn ha, tankje ik oan dy.
En stilsitte kin er ek net.
O, wis, syn tiden genôch, dat er har gelyk is, as der mar net dy nuvere ûnrêst wie dy 't him altyd wer dreau, dy 't syn bloed yn fjoer sette, him opjage oant er folslein yn in ban libbe.
Dêrmei binne de ferhâldingen wol sketst.
De meester hie der oer ferteld.
Ier yn 'e moarntiid al lûkt út alle wynstreken wei in stream fan rydtugen nei de haadstêd en tsjin njoggen oere steane der hûnderten weinen by de poarterbergen en binne de stâlen fol mei hynders, wylst de minsken de tribunes om 'e baan befolke.
No 't ik der net foar fielde, sille se wol de iene of oare suffert ploechbaas makke ha, sûnder my kinne se neat begjinne, se hiene graach wollen dat ik weromkaam, mar ik sjoch wol út.
As it gjin oarloch west hie, soe men tinke: Wat in knap stel.
Lutz wie earder kandidaat-listlûker by de Keamerferkiezingen.
"Myn fel is swart."
In rûge foet beroerde syn ear, de man bestoar it hast fan benaudens.
De klok yn 'e keuken rôp trije kear koekoek.
Se smite mei modder en stiennen nei dyn dochter! '
Einlings hiene se it doarp efter har litten.
`Wy komme noait wer by dy thús, 'sei Hinke ris ûnder it skoft op it skoalplein.
‘ Om 't it nedich is!
Ekonomyske faktoaren en doarpen (profit)
Spitich.
Lyts en pover wie dyn libben
Ik stap op. Sy wolle wol efkes op de bern passe.
Hûnderten kearen repetearre ik wat en hoe 't ik it sizze soe.
Postuum ferskynde har autobiografyske roman 'In fatsoenlik famke' oer har jeugdjierren yn Gaasterlân, Sint-Jânsgea en It Hearrenfean.
Fierder binne der twa byienkomsten hâlden foar de omwenners.
Haw ik Schoonheids lûd ferstien.
Hy fleach de kant út fan it lûd, en murk dat er in steile heuvel opgie.
'Hy lei de hân op syn boarst.
In dikke sechstich jier.
No hear ik Maggy op 'e gong, ik kin my net fersinne, se is hast by myn doar.
Ik gunde my gjin tiid mear om it te kontrolearjen en plofte yn de auto.
Hy wie fol oandacht en belangstelling.
Ik seach ûnder it ôfdakje.
Foar De Lytsk betsjutten dizze knikkerts dêrom folle mear as glêzen stuiters.
Sjoch, hjir hawwe jo de seis tommen yn in pûdsje.
It bloeiende lânskip op in waarme simmerdei, de risping, hichtepunt en bekroaning fan moannenlange soarch en meast wurk.
Ik wol alles wol dwaan, ik bin echt nearne te beroerd foar, mar se moatte my net kommandearje.
Dat nijs soarget no foar fertraging yn de planning.
Mei allegearre dy ’t wy foar jo antlit betinke....., mei allegearre dy ’t ús foargien binne, mei wa ’t ús leaf wiene en dy ’t wy ferlieze moasten....., mei de hilligen fan namme en de ûntelbere fierteannen, jo hiele minskefolk, oan jo miel.
Ien skriele treast hie ik: Hja soene my foarearst net wer lestich falle mei dy telefyzje.
Jo beskuldigje my fan dingen dêr 't gjin hier op myn holle oait oer tocht hat, gjin sekonde.
It neie goud ferblinet myn eagen,
Hy hat godferdomme gjin oar nedich en grif gjin abstrakte baas.
Hâld dochs op!
In pear foarbylden kinne in yndruk jaan.
En Gerrit stie foar de doar, om nei syn skippen te sjen, sei er ferlegen, mar ik wist wat in hekel er hie oan sneinen en yn it bysûnder oan feestdagen.
“Wel, hjir binne wy, hielendal klear, ” sei Merten,“ mar wêr binne de doarren?
It brûken fan it oprjochtsjen fan lûd - of fotyfstiennen stamde út de Romeinske beskaving.
Evangeelje: Jehannes
Mar dat kin my op dit stuit yn earste oanlis ek gjin soademiter skele.
Omrin fersoarget ek it struien fan sâlt yn in soad strjitten en fytspaden.
Margot en mem de ôfwask, menear en mefrou op 'e divan, Peter op souder, heit op 'e divan, Dussel ek en Anne oan 't wurk.
As de bern nei skoalle wiene, siet se gauris yn 'e hege, stille stúdzjeseal.
Razzia!
Amen.
Dan begjint it gelazer.
Yn de Registers binne de boppeneamde útjeften ferantwurde.
Op basis fan syn ynstruksje fierde er sawol militêre as bestjoerlike taken út.
De iene, Teakema, ried nei Baard, neitinkend oer dat fanke, Tsjits, dat sa sterk wie yn har swakte.
Wat hie in frou te krijen mei in breuk of stikkene terms.
Fierder wie alles rêstich.
Hja hie it der dreech mei, dat hja troch har hertklachten ek op sa 'n grutte gearkomste net neist har man stean koe, mar der wie noch gjin tinken oan dat hja meigean kinne soe.
HAADSTIK 24 In doarpsman as bekende Nederlanner
Yn fjirtjin dagen hie er der net mear oan tocht.
De jongfeint fleach der tsjinoan as wie de berch stroef as in flier dêr 't men wiet sân oer struid hat.
Ik koe wol fiif kanten út.
Dat seit Hinke Elzinga, de muoike fan it slachtofferke.
It die him nij dat it wylde dier him mei rêst litten hie.
Efternei liket it wol foar de hân te lizzen dat de Looxma's har nei de oankeap fan Vijversburg yn Ryptsjerk rjochtsje soene op oankeap fan grûn yn Tytsjerksteradiel.
Se stiene de folwoeksenetarin foar.
Ús hite fuotten baarne it koele gers
"Wêr binne dyn papieren?" Freegje de manlju.
Hy sei dat se de oare moarns by it lemieren fan 'e dei wol sjen soene wat it wie.
Hy hie him nei de midsiuwen flitse litten yn de romantyske hoop in riddertoernoai bywenje te kinnen.
Hy sei neat.
De slachtoffers binne nei de sikehuzen fan Grins en Ljouwert brocht.
Dat spilet ek by Fier.
Us heit belle altyd op syn eigen keamer, ús mem yn 'e gong, en soms op it húske, dêrom ha wy ek sa 'n lange tried oan dy telefoan krigen.
D) útjefte fan de euro (kêst 128);
Ek al soe er yn in fleach fan nostalgysk langstme alles yn gedachten op 'e nij belibje kinne.
TIISDEI, 18 MAAIE 1943
It griene ljocht hie ek oare tegels beskynd.
In lang ferhaal.
Yn it bûtenlân, bygelyks yn Denemarken, waard al fan likernôch 1830 ôf suksesfol eksperimintearre mei mear yndustriële metoades.
Tinke wy no fuort wer oan ússels?
Van Basten lei nei de wedstriid tsjin Molde út dat him tasein wie dat der mear gûlerij wurde soe.
Der wiene in soad beswieren út de buert en dat rûn oant de Ried fan Steat ta.
Hy kin mei gemak in lêzing fan oardel oere hâlde dêr 't Jan Timmer en menear Duisenberg in puntsje oan sûgje kinne.
`Tabak kinne jo wol krije, 'sei Wite.
Der is sels jild ynsammele.
Sjit it troch my hinne
Alles wat der oant no ta yn it religieuze draachnet meisleept wie, wie oan slitaazje ûnderheftich.
Fierder leit der kommentaar op it prachtstik fan syn Roomske advokaat, dat er brûke kin by syn ferdigening.
It like wol oft elkenien yn tsjerke de siken ynhâlde.
Alle twaënfyftich.
In minske docht it him sels oan. "
Der wie troch de ar-partij in gearkomste útskreaun yn 'e grifformearde tsjerke; sprekker dûmny Sap út Gouda, debat frij.
In frjemde krupsje ûnder de lea
Mar no wist er it!
Wat is it in seldsum moaie jûn, no Dieuwke?
Op it stuit dat ik de doar útgong, begûnen se my alderhanne opdrachten te jaan: Dit moatst sizze, dat moatst foaral net sizze, tink hjiroan en tink dêroan, sadat it ôfskied dat ik my wat plechtich foarsteld hie wat fan in flecht hie, fuort fan de bemuoisuchtige famylje.
Gandalf sloech lofts - noch rjochtsôf, want de gong like yn ’e rjochting te gean dy ’t er woe.
Spearsplein 40, 8911 LJ Ljouwert.
`Net prate, Opsjitte, 'sei mem.
Pas dêrnei slagget it om soarchynstellings te stimulearjen om fan taal belied te meitsjen binnen de ynstelling.
It wie sawat Luilekkelân.
WAARUIT SICH ONTSPON
Ynienen skeat Dolf wat yn 't sin.
Hy fielt de planke ûnder syn reet, lykas eartiids, mar de piksjitters lûke him oer de pinegrins, sa 't er destiids de flymjende pine fergeat doe 't er en De Kid it boekje oer de swarte non liezen.
Se groeide goed...
En soms famylje.
Mei oanbieder Connexxion is ôfpraat dat alle sjauffeurs op syn minst it Frysk passyf behearskje.
Se iepenje foar belutsenen doarren nei oare regio's mei minderheidstalen.
Lûde gjalpen kamen tichterby.
Ik wol de Ring net hawwe om te brûken. ”
It is deselde kym dy 't ús losliet
'It kaam net iens yn my op.
2.
No, dan koene hja der wol better.
'Mar wy neame it lembas of weibrea, en it is fersterkender as wat iten dat troch Minsken makke wurdt, en it is yn alle gefallen folle smaakliker as cram.'
Yn de twadde paragraaf wurdt de ferhâlding tusken de reginten en de bedielden oan in neier ûndersyk ûnderwurpen.
De iene doas nei de oare, doazen en nochris doazen.
De blommen dolden.
Dêrneist binne der in tal wurken oanwêzich fan de ferneamde skilder Adriaan van Cronenburg.
Edzard wie Ulrik’s twadde soan.
De foarsitter fan it Europeesk Parlemint ropt yn oerlis mei de foarsitter fan de Ried fuortendaliks it bemiddelingskomitee gear.
In âlde, grouwe man mei in tinne grize frissels op 'e rêch.
Hierlimmers.
Hoe soe hja bygelyks Hiltsje ris neame?
We ha kaarten ophelle by bedriuwen, kaarten stellen en by tûzenen neimakke.
Hy koe it dûbelde gefoel net oan: Twa minsken dêr 't er safolle fan hâlde skielk wenjend yn dát lân.
Wat stie dat giele pakje dochs goed en wat siet myn hier moai.
Dat yn Ljouwert syn advokatepraktyk ûnderwilens ferrûn, toe mar, it skynde Piter net te dearen, moast hja har der dan drok oer meitsje?
‘ Ja, ’ anderet Ate, ‘ en dan sil ik it wol sizze. ’
Hy wie soms dagen en nachten fan hûs.
Yn it reid, sadat gjin mins it seach.
En dan stapt er út.
Sûnt de sabotaazje-aksjes fan de OPM tinke de Yndonesiërs dat alle Papoea's by it ferset sitte.
‘ Wat? ’
Dy sei: 'No, dan wurkje wy dy twadde frou wer fuort, sa beswierlik is dat ek wer net.
Doe betocht er him wêr 't er wie en joech him wer del.
De organisaasje fan it jierlikse Befrijingsfestival yn Ljouwert hopet moandei op sa 'n 80.000 besikers.
De koepel wat oant 1986 ûnderdiel út fan de fjoertoer op Flylân.
De oare twa, Otto van der Galiën en Pieter Buisman, brutsen dit wykein mei de PVV.
Hoe kin se glêshurd beweare dat der gjin piper yn it iten sit, wylst dat wol sa is?
Dat wol yn alle gefallen de Noordelijke Dagblad Combinatie, de NDC.
Earst mar even kalm oan dêr yn Hollân, sufferds! '
Hy balde de hân ta in fûst, helle út en joech syn soan in opdonder dat er mei fyts en al oer de dyk mealde.
Better as no?
'Dêr, ús hûs,' sei se, mear ta harsels as ta har man en soan.
Mar om dan noch te wegerjen...
Wilco komt oerein en giet efter de froulju stean, flústeret har wat yn, Douwe hat de hannen op 'e leuningen fan 'e stoel, hy komt heal oerein as in oanfal.
`Lust dyn poeiermolke, Anneke? 'Frege mem.
De sylster helle in sulveren medalje op de Olympyske Spelen en waard dêrfoar huldige yn har wenplak.
De Lytsk seach dat net, dy dreamde der allinnich fan.
Hy hie stâlen fol fee, in eigen pryster, in eigen swurdfjochter en in liifwacht fan hûndert man en likefolle hynders.
Foaral dat lêste, want dêryn wie se in masteresse.
Sa is it ek mei God.
Dy man wit in ôfgryslik soad. '
Foppe: "Jef, jij moet die corner uitblokken, hè.
Pak my by de earen beet en spring my mar wer op 'e rêch, want ik bring dy werom. '
Hy komt nei my ta en begjint te praten.
'It Leger des Heils soe se miskien noch wol brûke kinne.
Faber moast úteinlik njoggentjin minuten tajaan op har doarpsgenoat út Wergea.
En wêr bisto eins?
Dy reis moat net al te gefaarlik wêze, al is de Wei minder maklik as dat er wie, en dreger wurde sil nei ’t it jier komt. ”
Sa hiene Johannes en Gerlske noait mear as twa bern tagelyk.
• Kultueredukaasje wurdt op in heger nivo brocht troch útfiering fan it programma kultueredukaasje.
Mei sa 'n man, tink.
De buien kinne sawol woansdei, woansdeitejûn en - nacht en tongersdei foarkomme.
It is sels mooglik, dat er troch minsken fan it ferset likwidearre is.
Foar Jacqueline wie it ekstra bysûnder, want se mocht foar it earst stimme.
Hy wie dwaande Mintsje wat te fertellen en as gewoanlik die hja har wurdsje ek, sadat it tsjin elkoar yn gie.
Lit ús mar net iependwaan. '
Ik fernim, ik kin it net beskriuwe, mar it wurd 'mams' seit alles.
Se lake, mar seach daliks wer earnstich en swijde.
Yn guon gefallen rekken wy dit op:
Dat is neffens direkteur De Vries goed foar de wurkgelegenheid.
En de stap yn it grint?
Us mem wie ek ûnecht.
Leafde hearsket wer rûnom.
Hen oanklampe as se soms oer de ôfdielingen rapje hat net folle doel.
“Is it lot fan Minas Tirith dan einlings ferfolle?
Hy sloech gjin inkeld riedsel oer.
De oare deis stie der in foto op de foarside fan de Ljouwerter Krante: Dorin Mitrita oan de opslach.
(10).
Dy kearen binne op ien hân te tellen.
Hy sei dat de ring 'syn tinzen begûn te behearskjen' en makke him der altyd soargen oer, mar hie net it flauste idee dat dit oan de ring sels lei.
Hy wie gelyk in tsjustere nacht.
Dat eardere pastoryplak waard yn 1847 kocht troch Nicolaas Ypeij en Baudina Looxma fan Foppe Klazes Wybrandi ûnder Ljouwert foar in bedrach fan 14.000 gûne.
Achterveld (Achterhoek) - in lanlik gebiet en natuergebiet yn de Nederlânske streek de Achterhoek.
"No moatst it net dy kant op gean litte", seit se, "it is foar dy slimmer as foar my."
Oarsom is it net sa dat elk Nijfrysk wurd dat yn de kartoteken foarkomt, ferwurke is.
Hy wie studint oan de Frjentsjerter Hegeskoalle yn 1717, tegearre mei syn broer Eiso (Dokkum, 3 maart 1700 - dêre, 6 juny 1766).
‘ Hy hat der by west, oars hiene wy him net pakt. ’
Kêst 203
Sels ferklearre Benner ris: `Soms benauwt de wereld me en dan kom ik altijd terug bij de natuur, de bron van alle dingen '.
De Grutsk hinget mei in toukonstruksje oan fjouwer katrollen yn de keamer.
Der stie in kapel oan 'e kant fan 'e dyk.
Heech te priizgjen binne Jo, hillige God, yn jo Soan, dy ’t de fuotten fan syn learlingen wosk.
Turnoefeningen op in smelle planke boppe de sleat dy 't houlik hjit.
De grutte stroomsteuring yn Noardeast-Fryslân is om healwei sânen ferholpen.
Toe no, brûk jo ferstân.
Met Publeaks bieden wij mensen een manier om ons veilig en anoniem te tippen over zaken. "Publeaks makket gebrûk fan in saneamd TOR-netwurk om derfoar te soargjen dat de ôfstjoerder fan ynformaasje net te trasearjen is.
Op it grutte Domplein foar de nije tsjerke preke er dagen efterinoar en de tarin fan bern waard hieltyd grutter.
3.
‘ Wachtsje, ik sil se noch ris neikomme, dan kinne wy sjen oft it wier is.
Ik soe de fyts helje, mar hy siet der foar mei syn bakken ferve.
"Dêr ha ik bewust foar keazen.
It Famke:
Gebedsstilte.
'Wurden besteane út letters.'
CDA-foarsitter Douwe Tamminga typearret Van der Ham yn in earste reaksje as in 'gedreven christendemocraat, die loyaal aan zijn partij was.
De leafdesjierren, dy fan de bern.
Fan tiid ta tiid rûn se nei it rút.
Mar dan prate je oer in twadde keeper, in spiler dêr 't je makliker wat risiko mei nimme kinne.
It hier is griis wurden,
Se ha der de hiele dei west. '
Dineke sei, dat se no fuort koene en Joast koe witte, wannear 't der wer in gelegenheid kaam.
Se hawwe dêroer in brief skreaun oan minister Kamp fan Ekonomyske Saken.
Ik wit sa gau neat oars te betinken, sa wurch bin ik fan alle spanningen.
1.
Dêr 't de marmeren treppen fan 'e katedraal besiedde leine mei stjonkende bidlers, dêr 't yn 'e paleizen de rotten en flieën omsprongen, dêr 't de luzen gâns riker wiene as de minsken en wêr 't oer it lot fan sântûzen ûnskuldige bern beslist wurde soe.
Wat no noch in ferâldere bedriuwssammelgebou yn in fergetten hoeke op in yndustryterrein yn Burgum is, moat fan 1 maaie ôf omtsjoend wêze ta in saneamde 'leisure-park'.
It hat in waachstik west, it gie der op of der ûnder, mar al dy tûzenen en tûzenen minsken fielden dat it sa moast!
Laket it gers
It fjoer ûntstie troch in probleem mei in sintrale houtkachel yn de skuorre.
Op de webside binne de winnende foto 's, mar ek de oare ynstjoerings, te sjen.
Sjoen syn eigen eftergrûn moatte dizze kanten fan it wurk wol hast ta inerlike konflikten liede.
De bistjes, troch ús tebekkrongen, wachtsje de kâns ôf om op 'e nij taslaan te kinnen.
In botste achterop in frachtwein en kaam dwers op de dyk te stean.
Dy ruter moast er mei ien fan syn pylken ôfsjitte.
Foster tekene allinnich lokaasjes dy 't er koe of besocht hie.
WAT MEN BEWIERN WIL LIGT OP WAGENS
Dat wy no grif leauwe soene, dat wy ta dit genedeferfier hearre, naam de Heare Jezus yn syn lêste jûnsmiel it brea, tanke, briek it en joech it oan syn jongerein, en spriek: Nim, yt, dat is myn lichem, hetwelk foar jimme jûn wurdt; doch dat ta in oantinken oan My.
Se frege de bisten oft se ek wisten wêr 't in prinses mei gouden hier opsluten siet, mar der wie gjin bist dat it har sizze koe.
Der soe in betûft húshâldster komme moatte, as de bern aanst wer thús wiene, soe it libben foar har al drok genôch wurde.
`Geduld, geduld, 'sei mem.
Mar it petear hie net it winske resultaat.
Beppe hie der in feestlik krânske fan acht koweblomkes op lein en dat like noch moaier as foaroarlochske brânende kearskes.
4 IT LÂSKIP
In healoere letter komt Waïd oanrinnen, ûnwittend, lykas ik.
Mar it gie om de frijheid, wat dat dan ek betsjutte.
'Oardielet net, dat jimme net oardiele wurde' bybelle muoike, lilk kaam se oerein.
Meiwurkers wurde ekstra yn de gaten hâlden.
Alice sette de lange neils yn myn earms.
De warskôging foaral neat oan de sifers ûnderoan te feroarjen sette him oan it tinken.
Jesse moast freeslik gûle. '
Xxx..
O boatsje, bliuw dochs by sinnen:
Us supporters hâlde der net fan om samar in soad leven te meitsjen.
Fan Ghalil hear ik dat Russyske soldaten folsleine Afghaanske doarpen útmoardzje, nei 't se soms de froulju ferkrêfte hawwe.
De ferhalen oer De Nus soene dus dochs wol wier west ha.
`Dat soe in soad muoite en tiid kostje, hie Dineke tajûn, 'mar dat ha jo der dan mar foar oer.
Aldus it ferhaal dat yn de doarpskom giet:
De manlike Van-Daan-ôfdieling hat in tige komfortabele, beitste profyzjekast timmere, mei echte fleanhorren.
Wylst ik op 'e trepleer stie om de ruten fan 'e erker te laapjen, seach ik se oankommen, rinnend, elk mei in tas: Leo en Ella.
Ik bin in oare ik.
Houtskoolschets Windstreek
Hy hie in wite foarskoat oan en fleach him in doar út en in oare yn mei in blêd beladen mei folle kannen.
De prins moast wol wer meidwaan mei it bal, mar foar him wie de aardichheid derôf.
Man trappearre mei ljipaaien
It gie mis.
Sa presintearret de Ljouwerter wenwyk Camminghabuorren sneintejûn in eigen Passion foar de bewenners.
Wat soe der stean?
It bytsje hout dat de bern fûnen wie fochtich, of fierste farsk.
Boargemaster Crone fan Ljouwert is ien fan de persoanen dy 't in taspraak hâlde sil.
Doe 't ik swierrichheden hie, ha jim, en ek do, de eagen ticht dien en de earen tichtdien, jo hawwe my net holpen, krektoarsom, neat as warskôgingen haw ik krigen, dat ik net sa lûdroftich wêze moast.
Miskien is se wol wat gek, mar as dit net barde, soe se seker nei Dryhús moatte.
En hy sei: 'Witte jo wat?
It ‘ lytse tsjerkje ’ hiet dat, ta ûnderskieding fan de grutte (herfoarme) en de dolearjende (grifformearde).
Hja wist, wêrom 't har heit de moarns by de boer komme moast en dat drukt har.
Efkes letter sit Ids op 'e bank en wachtet op 'e amers en bussen.
Doe 't in pear jier letter, mei de yntree fan nije figueren yn de kommisje, dy 't kollektiviteit noch grutter waard, koe ik der net mear tsjin op en haw ik de rûnte ferlitten.
Wat wie dat?
Sa kinne je it net neame; hy oertocht de gefolgen fan syn dwaan en litte net al te soarchfâldich.
Ate komt wer in pear stappen werom.
Sa ôfgryslik lyts is dat gatsje dat derûnder sit, dat ik my hast net yntinke kin hoe 't dêr in man yn moat, lit stean in hiel bern út.
