[2021-03-03 11:39:18] [valid] Ep. 8 : Up. 5000 : ce-mean-words : 3.73968 : new best
[2021-03-03 11:39:19] [valid] Ep. 8 : Up. 5000 : perplexity : 42.0843 : new best
[2021-03-03 11:39:47] [valid] Ep. 8 : Up. 5000 : translation : 14.62 : new best
[2021-03-03 12:51:53] [valid] Ep. 15 : Up. 10000 : ce-mean-words : 1.832 : new best
[2021-03-03 12:51:55] [valid] Ep. 15 : Up. 10000 : perplexity : 6.24636 : new best
[2021-03-03 12:52:08] [valid] Ep. 15 : Up. 10000 : translation : 46.61 : new best
[2021-03-03 14:04:08] [valid] Ep. 22 : Up. 15000 : ce-mean-words : 1.58702 : new best
[2021-03-03 14:04:11] [valid] Ep. 22 : Up. 15000 : perplexity : 4.88916 : new best
[2021-03-03 14:04:22] [valid] Ep. 22 : Up. 15000 : translation : 49.32 : new best
[2021-03-03 15:16:24] [valid] Ep. 29 : Up. 20000 : ce-mean-words : 1.51297 : new best
[2021-03-03 15:16:27] [valid] Ep. 29 : Up. 20000 : perplexity : 4.54021 : new best
[2021-03-03 15:16:38] [valid] Ep. 29 : Up. 20000 : translation : 50.49 : new best
[2021-03-03 16:28:47] [valid] Ep. 36 : Up. 25000 : ce-mean-words : 1.54453 : stalled 1 times (last best: 1.51297)
[2021-03-03 16:28:48] [valid] Ep. 36 : Up. 25000 : perplexity : 4.68577 : stalled 1 times (last best: 4.54021)
[2021-03-03 16:28:59] [valid] Ep. 36 : Up. 25000 : translation : 51.28 : new best
[2021-03-03 17:41:01] [valid] Ep. 43 : Up. 30000 : ce-mean-words : 1.62183 : stalled 2 times (last best: 1.51297)
[2021-03-03 17:41:02] [valid] Ep. 43 : Up. 30000 : perplexity : 5.06235 : stalled 2 times (last best: 4.54021)
[2021-03-03 17:41:12] [valid] Ep. 43 : Up. 30000 : translation : 50.96 : stalled 1 times (last best: 51.28)
[2021-03-03 18:53:11] [valid] Ep. 50 : Up. 35000 : ce-mean-words : 1.69312 : stalled 3 times (last best: 1.51297)
[2021-03-03 18:53:12] [valid] Ep. 50 : Up. 35000 : perplexity : 5.43641 : stalled 3 times (last best: 4.54021)
[2021-03-03 18:53:22] [valid] Ep. 50 : Up. 35000 : translation : 50.92 : stalled 2 times (last best: 51.28)
[2021-03-03 20:05:27] [valid] Ep. 57 : Up. 40000 : ce-mean-words : 1.76328 : stalled 4 times (last best: 1.51297)
[2021-03-03 20:05:28] [valid] Ep. 57 : Up. 40000 : perplexity : 5.83154 : stalled 4 times (last best: 4.54021)
[2021-03-03 20:05:38] [valid] Ep. 57 : Up. 40000 : translation : 51.04 : stalled 3 times (last best: 51.28)
[2021-03-03 20:37:39] [valid] Ep. 61 : Up. 42235 : ce-mean-words : 1.79076 : stalled 5 times (last best: 1.51297)
[2021-03-03 20:37:39] [valid] Ep. 61 : Up. 42235 : perplexity : 5.994 : stalled 5 times (last best: 4.54021)
[2021-03-03 20:37:49] [valid] Ep. 61 : Up. 42235 : translation : 51.21 : stalled 4 times (last best: 51.28)
